<svg class="chevron-down" width="24" height="24" viewBox="0 0 24 24" fill="none" xmlns="http://www.w3.org/2000/svg">
    <path d="M7.41 8.29501L12 12.875L16.59 8.29501L18 9.70501L12 15.705L6 9.70501L7.41 8.29501Z" fill="#454545"/>
</svg>
