<svg width="13" height="10" viewBox="0 0 13 10" fill="none" xmlns="http://www.w3.org/2000/svg">
<path fill-rule="evenodd" clip-rule="evenodd" d="M3.88036 10C8.40538 10 10.8804 6.15218 10.8804 2.81576C10.8804 2.70623 10.8804 2.59752 10.8732 2.48922C11.3547 2.13232 11.7702 1.68918 12.1006 1.18214C11.6521 1.38643 11.1754 1.52041 10.688 1.57948C11.2012 1.26381 11.5855 0.767869 11.7696 0.182674C11.2864 0.476809 10.7581 0.684398 10.2071 0.79578C9.27537 -0.220776 7.71706 -0.270029 6.72596 0.686221C6.08741 1.3028 5.8158 2.2221 6.01426 3.09897C4.03625 2.99683 2.19315 2.03813 0.943623 0.460998C0.290681 1.61477 0.624647 3.09022 1.70569 3.8311C1.31416 3.8194 0.931032 3.71122 0.588672 3.51554V3.54759C0.589272 4.74936 1.41489 5.78415 2.56249 6.02229C2.20034 6.12382 1.82021 6.13854 1.45207 6.06532C1.77404 7.09418 2.69799 7.79888 3.75025 7.81919C2.87906 8.52191 1.80282 8.90349 0.694797 8.90227C0.499335 8.90165 0.303872 8.88995 0.109009 8.86595C1.23442 9.60683 2.5433 10 3.88036 9.99817" fill="#203A71"/>
</svg>
